module github.com/forPelevin/go-envdir

go 1.12

require (
	cloud.google.com/go v0.41.0 // indirect
	github.com/OpenPeeDeeP/depguard v1.0.0 // indirect
	github.com/StackExchange/wmi v0.0.0-20190523213315-cbe66965904d // indirect
	github.com/coreos/bbolt v1.3.3 // indirect
	github.com/coreos/etcd v3.3.13+incompatible // indirect
	github.com/coreos/go-semver v0.3.0 // indirect
	github.com/coreos/go-systemd v0.0.0-20190620071333-e64a0ec8b42a // indirect
	github.com/fatih/color v1.7.0 // indirect
	github.com/go-critic/go-critic v0.3.4 // indirect
	github.com/go-kit/kit v0.9.0 // indirect
	github.com/go-ole/go-ole v1.2.4 // indirect
	github.com/golang/groupcache v0.0.0-20190702054246-869f871628b6 // indirect
	github.com/golang/protobuf v1.3.2 // indirect
	github.com/golangci/errcheck v0.0.0-20181223084120-ef45e06d44b6 // indirect
	github.com/golangci/go-tools v0.0.0-20190124090046-35a9f45a5db0 // indirect
	github.com/golangci/gocyclo v0.0.0-20180528144436-0a533e8fa43d // indirect
	github.com/golangci/gofmt v0.0.0-20181222123516-0b8337e80d98 // indirect
	github.com/golangci/golangci-lint v1.17.1 // indirect
	github.com/golangci/gosec v0.0.0-20180901114220-8afd9cbb6cfb // indirect
	github.com/golangci/lint-1 v0.0.0-20181222135242-d2cdd8c08219 // indirect
	github.com/golangci/revgrep v0.0.0-20180812185044-276a5c0a1039 // indirect
	github.com/gostaticanalysis/analysisutil v0.0.2 // indirect
	github.com/grpc-ecosystem/grpc-gateway v1.9.4 // indirect
	github.com/kisielk/errcheck v1.2.0 // indirect
	github.com/klauspost/compress v1.7.4 // indirect
	github.com/klauspost/cpuid v1.2.1 // indirect
	github.com/konsorten/go-windows-terminal-sequences v1.0.2 // indirect
	github.com/kr/pty v1.1.8 // indirect
	github.com/logrusorgru/aurora v0.0.0-20190428105938-cea283e61946 // indirect
	github.com/magiconair/properties v1.8.1 // indirect
	github.com/mattn/go-colorable v0.1.2 // indirect
	github.com/nbutton23/zxcvbn-go v0.0.0-20180912185939-ae427f1e4c1d // indirect
	github.com/onsi/ginkgo v1.8.0 // indirect
	github.com/onsi/gomega v1.5.0 // indirect
	github.com/pelletier/go-toml v1.4.0 // indirect
	github.com/pkg/errors v0.8.1 // indirect
	github.com/prometheus/common v0.6.0 // indirect
	github.com/prometheus/procfs v0.0.3 // indirect
	github.com/rogpeppe/fastuuid v1.2.0 // indirect
	github.com/rogpeppe/go-internal v1.3.0 // indirect
	github.com/russross/blackfriday v2.0.0+incompatible // indirect
	github.com/shirou/gopsutil v2.18.12+incompatible // indirect
	github.com/shurcooL/go v0.0.0-20190704215121-7189cc372560 // indirect
	github.com/sirupsen/logrus v1.4.2 // indirect
	github.com/spf13/afero v1.2.2 // indirect
	github.com/spf13/cobra v0.0.5 // indirect
	github.com/spf13/jwalterweatherman v1.1.0 // indirect
	github.com/spf13/viper v1.4.0 // indirect
	github.com/stretchr/objx v0.2.0 // indirect
	github.com/timakin/bodyclose v0.0.0-20190713050349-d96ec0dee822 // indirect
	github.com/ugorji/go v1.1.7 // indirect
	github.com/valyala/fasthttp v1.4.0 // indirect
	go.etcd.io/bbolt v1.3.3 // indirect
	golang.org/x/crypto v0.0.0-20190701094942-4def268fd1a4 // indirect
	golang.org/x/exp v0.0.0-20190627132806-fd42eb6b336f // indirect
	golang.org/x/image v0.0.0-20190703141733-d6a02ce849c9 // indirect
	golang.org/x/mobile v0.0.0-20190711165009-e47acb2ca7f9 // indirect
	golang.org/x/net v0.0.0-20190628185345-da137c7871d7 // indirect
	golang.org/x/sys v0.0.0-20190712062909-fae7ac547cb7 // indirect
	golang.org/x/tools v0.0.0-20190715221914-9b2cb0e5f602 // indirect
	google.golang.org/genproto v0.0.0-20190708153700-3bdd9d9f5532 // indirect
	google.golang.org/grpc v1.22.0 // indirect
	mvdan.cc/unparam v0.0.0-20190310220240-1b9ccfa71afe // indirect
	sourcegraph.com/sqs/pbtypes v1.0.0 // indirect
)
